<svg width="20" height="20" viewBox="0 0 20 20" fill="none" xmlns="http://www.w3.org/2000/svg">
<path d="M16.751 4.55937C15.7823 3.70493 14.4767 3.33912 13.205 3.56578C11.8867 3.80167 10.732 4.58964 10.0318 5.73126C9.33166 4.58964 8.17699 3.80167 6.8587 3.56578C5.58706 3.33946 4.28159 3.70525 3.31267 4.55937C2.14755 5.62719 1.73157 7.43184 2.17137 9.51104C2.173 9.51885 2.17824 9.52466 2.18053 9.53215C2.19173 9.56607 2.20889 9.5977 2.23123 9.62556C2.23628 9.63165 2.23836 9.63918 2.2441 9.64492C2.2515 9.65044 2.25919 9.65556 2.26716 9.66026C2.28081 9.67146 2.29555 9.68128 2.31118 9.68951C2.34102 9.70516 2.37362 9.71495 2.40716 9.71828C2.41604 9.71916 2.42448 9.72339 2.43336 9.72339C2.44293 9.72204 2.45243 9.72019 2.46178 9.71784C2.47079 9.71825 2.47979 9.71818 2.48877 9.71762C2.49661 9.71596 2.50242 9.71075 2.50998 9.70846C2.52692 9.70312 2.54327 9.69606 2.55874 9.68737C2.57471 9.67903 2.58977 9.66902 2.60367 9.6575C2.60963 9.65251 2.61703 9.6505 2.62262 9.64492L3.56443 8.70336L3.56757 8.70129C3.77402 8.49424 4.10852 8.49144 4.31843 8.69498C4.52834 8.89852 4.53584 9.23295 4.33522 9.44568L2.79048 10.9904C2.72258 11.0579 2.69591 11.1566 2.72051 11.2491C2.74511 11.3416 2.81728 11.414 2.90971 11.4388C3.00214 11.4637 3.10085 11.4373 3.16856 11.3696L4.69639 9.84177C4.69849 9.83977 4.70128 9.8392 4.70338 9.83713C4.70737 9.83314 4.70991 9.82834 4.71383 9.82433L5.64237 8.89579C5.64473 8.89359 5.64786 8.89293 5.65015 8.89064C5.86179 8.68773 6.19572 8.68773 6.40735 8.89064C6.61487 9.09888 6.61594 9.43545 6.40971 9.64498L6.40657 9.64705L3.5558 12.4981C3.48819 12.5657 3.46177 12.6643 3.48653 12.7567C3.51128 12.8491 3.58345 12.9212 3.67582 12.946C3.76819 12.9707 3.86677 12.9443 3.93442 12.8767L6.4092 10.4048L6.41567 10.3983C6.62724 10.1948 6.96324 10.1998 7.16869 10.4095C7.37414 10.6191 7.37229 10.9552 7.16458 11.1626L6.59702 11.7302L6.59671 11.7305L6.59658 11.7306L4.52796 13.7994C4.46031 13.867 4.43393 13.9656 4.45868 14.058C4.48344 14.1503 4.5556 14.2225 4.64797 14.2473C4.74034 14.272 4.83893 14.2456 4.90657 14.178L6.97564 12.1088C7.18479 11.8997 7.52384 11.8998 7.73293 12.1089C7.94202 12.3181 7.94195 12.6571 7.73277 12.8662C7.73164 12.8673 7.73133 12.8689 7.7302 12.8701L5.65517 14.9451C5.65383 14.9465 5.65348 14.9483 5.65216 14.9497C5.65078 14.9511 5.6489 14.9515 5.64758 14.953C5.63779 14.966 5.62932 14.98 5.62223 14.9947C5.61184 15.0086 5.60284 15.0235 5.59531 15.0391C5.59035 15.0556 5.58703 15.0726 5.58543 15.0898C5.57454 15.1222 5.57526 15.1573 5.5874 15.1892C5.58972 15.2064 5.59374 15.2233 5.59936 15.2397C5.6077 15.2553 5.61752 15.2701 5.62876 15.2839C5.63629 15.298 5.64513 15.3113 5.65521 15.3237C5.65656 15.325 5.65841 15.3254 5.65976 15.3267C5.66117 15.3281 5.66164 15.3299 5.66305 15.3313C6.97065 16.5058 8.38674 17.5537 9.89229 18.4608C9.97804 18.5131 10.0858 18.5131 10.1715 18.4608C11.6771 17.5537 13.0931 16.5058 14.4007 15.3313C14.4022 15.3299 14.4026 15.3281 14.404 15.3267C14.4054 15.3254 14.4072 15.325 14.4086 15.3237C14.4186 15.3113 14.4275 15.298 14.435 15.2839C14.4462 15.2702 14.4561 15.2553 14.4644 15.2397C14.473 15.2067 14.4802 15.1734 14.486 15.1398C14.485 15.1229 14.4825 15.1062 14.4783 15.0898C14.4767 15.0726 14.4734 15.0556 14.4685 15.0391C14.4609 15.0235 14.4519 15.0086 14.4415 14.9947C14.4344 14.98 14.4259 14.966 14.4162 14.953C14.4148 14.9515 14.4129 14.9511 14.4116 14.9497C14.4103 14.9483 14.4099 14.9465 14.4086 14.9451L12.3335 12.8701C12.3324 12.8689 12.3321 12.8674 12.331 12.8662C12.1218 12.6571 12.1217 12.3181 12.3308 12.1089C12.5399 11.8998 12.8789 11.8997 13.0881 12.1088L15.1572 14.178C15.2617 14.2825 15.4312 14.2825 15.5358 14.178C15.6403 14.0734 15.6403 13.9039 15.5358 13.7994L13.4672 11.7305L13.4671 11.7304L13.4667 11.7301L12.8992 11.1625C12.7639 11.0272 12.711 10.83 12.7605 10.6452C12.81 10.4604 12.9543 10.316 13.1391 10.2665C13.3239 10.2169 13.5211 10.2697 13.6564 10.405L13.6596 10.4071L16.1294 12.8767C16.2341 12.9803 16.4028 12.9799 16.507 12.8757C16.6112 12.7715 16.6116 12.6027 16.508 12.498L14.0371 10.0295L14.035 10.0264C14.0333 10.0247 14.0312 10.0236 14.0295 10.0219L13.6572 9.64699L13.6564 9.64646C13.4475 9.43749 13.4475 9.09879 13.6565 8.88992C13.8655 8.68105 14.2042 8.68108 14.413 8.89004C14.4153 8.89233 14.4185 8.89302 14.4208 8.89522L15.324 9.79841C15.3348 9.81128 15.3462 9.82317 15.3604 9.83744L15.3608 9.83788L15.3609 9.83791L15.3611 9.83813L16.8951 11.3695C16.9628 11.4372 17.0615 11.4637 17.154 11.4388C17.2464 11.4139 17.3186 11.3416 17.3432 11.2491C17.3678 11.1565 17.3411 11.0579 17.2732 10.9904L15.7368 9.45742C15.7322 9.45146 15.7269 9.446 15.7218 9.44038L15.7206 9.43834C15.5277 9.22705 15.536 8.90115 15.7394 8.69997C15.9509 8.49759 16.2843 8.49759 16.4958 8.69997L17.441 9.64492C17.4466 9.6505 17.454 9.65251 17.46 9.6575C17.4879 9.67994 17.5196 9.69719 17.5537 9.70843C17.5613 9.71072 17.5671 9.71592 17.5749 9.71759C17.593 9.72135 17.6115 9.72327 17.63 9.72327L17.6303 9.72333H17.6304H17.6306C17.6631 9.72301 17.6953 9.71674 17.7255 9.70478C17.7339 9.70071 17.7419 9.69619 17.7498 9.69126C17.7713 9.68088 17.7912 9.66764 17.8091 9.65192C17.8123 9.649 17.8165 9.64799 17.8196 9.64492C17.8252 9.63927 17.8273 9.6318 17.8323 9.62578C17.8461 9.60968 17.8579 9.59193 17.8674 9.57294C17.8734 9.56083 17.8785 9.54825 17.8825 9.53535C17.8862 9.52742 17.8894 9.51932 17.8923 9.51107C18.3321 7.43184 17.9161 5.62719 16.751 4.55937ZM17.4552 8.90197L16.8744 8.32135C16.4509 7.91698 15.7843 7.91698 15.3608 8.32135C15.2284 8.45479 15.1333 8.62062 15.085 8.80228L14.7942 8.51143C14.7901 8.50729 14.7845 8.50591 14.7801 8.50211C14.4092 8.13865 13.8305 8.0951 13.4094 8.39898C12.9883 8.70285 12.8473 9.2658 13.0753 9.73233C12.7064 9.80265 12.4017 10.0619 12.2732 10.4147C12.1447 10.7676 12.2114 11.1621 12.4487 11.4531C12.261 11.4985 12.0894 11.5944 11.9523 11.7303C11.5372 12.1468 11.5351 12.82 11.9476 13.239C11.9496 13.2411 11.9502 13.244 11.9523 13.246L13.8293 15.123C12.6456 16.1614 11.3752 17.0965 10.0318 17.9179C8.68848 17.0965 7.41801 16.1614 6.23438 15.123L8.11135 13.246C8.11346 13.244 8.11402 13.2411 8.11603 13.239C8.5285 12.8199 8.5264 12.1468 8.11135 11.7303C7.97415 11.5945 7.80249 11.4987 7.61486 11.4532C7.85209 11.1623 7.91883 10.768 7.79057 10.4152C7.6623 10.0624 7.35795 9.80309 6.98925 9.73243C7.18777 9.32372 7.10622 8.83423 6.78597 8.51193C6.36713 8.11148 5.7087 8.10693 5.28437 8.50158C5.27967 8.50569 5.27367 8.50719 5.26922 8.51168L4.97613 8.80476C4.92964 8.62269 4.83548 8.4563 4.70338 8.32264C4.28768 7.90775 3.61539 7.90506 3.19636 8.31658C3.1942 8.31862 3.19134 8.31922 3.18924 8.32132L2.60844 8.90194C2.36668 7.22815 2.74364 5.80713 3.6745 4.95414C4.52564 4.2179 5.66211 3.90216 6.77106 4.0939C8.03003 4.3028 9.10466 5.11519 9.79675 6.38175C9.84789 6.4621 9.93656 6.5108 10.0318 6.5108C10.1271 6.5108 10.2157 6.46213 10.2669 6.38175C10.959 5.11519 12.0336 4.30283 13.2926 4.0939C14.4015 3.90223 15.5379 4.21793 16.3891 4.95414C17.32 5.80716 17.697 7.22818 17.4552 8.90197Z" fill="white" stroke="white" stroke-width="0.5"/>
</svg>
