<svg xmlns="http://www.w3.org/2000/svg" width="26" height="26" viewBox="0 0 26 26">
    <g fill="none" fill-rule="evenodd">
        <g>
            <g>
                <path d="M0 0H26V26H0z" transform="translate(-713 -1228) translate(713 1228)"/>
                <g fill="#FF9B95" fill-rule="nonzero">
                    <path d="M5.94 4.744c.171 0 .331.083.43.222l.783 1.101c.065.091.097.197.097.302v.028c-.006.128-.058.253-.154.348L5.968 7.872c.839.142 1.608.489 2.255.987.284.219.543.466.775.738.758.89 1.216 2.042 1.216 3.3s-.458 2.41-1.216 3.3c-.11.129-.153.361-.274.478-.136.131-.35.145-.5.26-.86.663-1.938 1.058-3.105 1.058v-1.054c.867 0 1.67-.275 2.33-.741.144-.103.197-.317.326-.437.13-.12.336-.144.448-.28.585-.7.937-1.602.937-2.584 0-.981-.352-1.883-.937-2.584-.225-.27-.486-.512-.774-.716-.66-.467-1.463-.741-2.33-.741v-.352c-.14 0-.274-.055-.373-.154L3.14 6.745c-.096-.095-.148-.22-.154-.347v-.03c0-.104.032-.21.097-.3l.783-1.102c.099-.14.259-.222.43-.222zm6.21 0c.103 0 .201.03.285.084l.079.061.066.077.783 1.101c.064.091.096.197.097.302v.028c-.007.128-.059.253-.154.348l-1.128 1.128c2.407.405 4.246 2.504 4.246 5.024 0 2.81-2.286 5.096-5.096 5.096v-1.054c2.229 0 4.042-1.813 4.042-4.042 0-2.228-1.813-4.041-4.042-4.041v-.352c-.14 0-.274-.055-.372-.154L9.35 6.745c-.096-.095-.148-.22-.154-.347v-.03c0-.104.032-.21.097-.3l.783-1.102c.098-.14.259-.222.43-.222h1.643zM9.036 0c.832 0 1.509.72 1.509 1.604 0 1.854-1.99 2.929-2.075 2.974-.077.04-.162.06-.247.06-.084 0-.17-.02-.246-.06-.085-.045-2.075-1.12-2.075-2.974C5.902.72 6.58 0 7.41 0c.289 0 .572.089.813.253l.124-.076C8.56.062 8.796 0 9.037 0z" transform="translate(-713 -1228) translate(713 1228) translate(5 4)"/>
                    <path stroke="#FE9B96" stroke-width=".5" d="M8.998 9.597c-.232-.272-.491-.52-.775-.738-.86-.663-1.937-1.057-3.104-1.057-2.81 0-5.096 2.286-5.096 5.095 0 2.81 2.286 5.096 5.096 5.096 1.167 0 2.244-.395 3.104-1.058.15-.115.365-.129.501-.26.121-.117.165-.35.274-.477.758-.89 1.216-2.043 1.216-3.3 0-1.259-.458-2.411-1.216-3.3zm-.775 5.884c-.112.136-.318.16-.448.28-.13.12-.182.334-.326.437-.66.466-1.463.74-2.33.74-2.229 0-4.042-1.812-4.042-4.04 0-2.23 1.813-4.042 4.042-4.042.867 0 1.67.274 2.33.741.288.204.549.445.774.716.585.701.937 1.603.937 2.584 0 .982-.352 1.884-.937 2.584z" transform="translate(-713 -1228) translate(713 1228) translate(5 4)"/>
                    <path stroke="#FE9B96" stroke-width=".5" d="M11.328 7.802c-1.167 0-2.244.394-3.105 1.057-.283.219-.543.466-.774.738-.759.89-1.216 2.042-1.216 3.3s.457 2.41 1.216 3.3c.288-.204.549-.445.774-.716-.584-.7-.936-1.602-.936-2.584 0-.981.352-1.883.936-2.584.226-.27.487-.512.775-.716.659-.467 1.463-.741 2.33-.741 2.229 0 4.042 1.813 4.042 4.041 0 2.229-1.813 4.042-4.042 4.042-.867 0-1.671-.275-2.33-.741-.232.272-.491.519-.775.737.86.663 1.938 1.058 3.105 1.058 2.81 0 5.096-2.286 5.096-5.096s-2.286-5.095-5.096-5.095z" transform="translate(-713 -1228) translate(713 1228) translate(5 4)"/>
                </g>
            </g>
        </g>
    </g>
</svg>
