<svg width="21" height="21" viewBox="0 0 21 21" fill="none" xmlns="http://www.w3.org/2000/svg">
<circle cx="10.5" cy="10.5" r="10" fill="#D7D8EE" stroke="#4042AB"/>
<path fill-rule="evenodd" clip-rule="evenodd" d="M11.82 5.5L11.624 12.682H10.224L10 5.5H11.82ZM11.764 14.026V15.664H10.084V14.026H11.764Z" fill="#4042AB"/>
</svg>
