<svg xmlns="http://www.w3.org/2000/svg" width="42" height="42" viewBox="0 0 42 42">
    <g fill="none" fill-rule="evenodd">
        <g>
            <g>
                <path d="M0 0H42V42H0z" transform="translate(-159 -205) translate(159 205)"/>
                <g fill-rule="nonzero">
                    <g fill="#FFF" opacity=".78">
                        <path d="M21.67 21.166h-1.007V9.374l.68.583c.212.168.519.138.695-.067.176-.206.158-.514-.04-.698L11.42.12c-.188-.161-.466-.161-.654 0L.19 9.191c-.145.115-.215.3-.184.482.032.182.16.332.335.39.175.06.368.019.503-.106l.68-.583v11.792H.52c-.279 0-.504.226-.504.504s.225.504.504.504H21.67c.278 0 .504-.226.504-.504s-.226-.504-.504-.504zm-7.05-.504c0 .278-.226.504-.504.504s-.504-.226-.504-.504v-5.04c0-.277-.225-.503-.503-.503H9.08c-.278 0-.504.226-.504.504v5.04c0 .277-.225.503-.503.503s-.504-.226-.504-.504v-5.04c0-.834.677-1.51 1.511-1.51h4.029c.834 0 1.51.676 1.51 1.51v5.04z" transform="translate(-159 -205) translate(159 205) translate(6 6) translate(7.826 5.217)"/>
                    </g>
                    <g fill="#4042AB">
                        <path d="M7.748 6.188c.223 0 .432.108.56.29L9.33 7.913c.022.03.041.064.058.097l.012.026c.027.061.044.126.052.19.004.04.006.078.004.117l-.002-.092c.003.027.004.055.003.083l-.001.01c-.008.166-.076.328-.2.453l-1.471 1.47c1.093.185 2.097.637 2.941 1.288.37.284.708.607 1.01.962.99 1.16 1.587 2.664 1.587 4.305 0 1.64-.597 3.144-1.587 4.304-.142.167-.199.47-.357.623-.177.171-.458.189-.653.34-1.122.864-2.527 1.38-4.05 1.38v-1.376c1.132 0 2.18-.358 3.04-.967.188-.133.257-.413.426-.569.168-.156.437-.188.584-.365.762-.914 1.222-2.09 1.222-3.37 0-1.28-.46-2.457-1.222-3.37-.294-.354-.634-.669-1.01-.935-.86-.609-1.908-.967-3.04-.967v-.458c-.182 0-.357-.073-.486-.202L4.097 8.798c-.125-.125-.193-.287-.2-.453v-.02c-.002-.018-.001-.037 0-.055l.004-.044c.003-.025.008-.051.014-.077l.01-.034c.006-.022.014-.044.022-.065.02-.047.045-.093.076-.136l-.058.097c.016-.033.035-.066.058-.097l1.02-1.437c.13-.181.339-.289.561-.289zm8.1 0c.223 0 .432.108.56.29l1.022 1.436c.022.03.041.064.057.097l.012.026c.012.025.021.052.029.078l.009.034c.006.026.011.052.014.078.005.038.006.078.004.117v-.092c.001.027.002.054.001.081v.011c-.008.167-.076.33-.2.454l-1.471 1.47c3.139.53 5.537 3.268 5.537 6.555 0 3.664-2.981 6.646-6.646 6.646v-1.375c2.906 0 5.271-2.365 5.271-5.271 0-2.907-2.364-5.272-5.271-5.272v-.458c-.182 0-.357-.073-.486-.202l-2.093-2.093c-.125-.125-.193-.287-.201-.453v-.01c-.001-.028 0-.056.002-.083L12 8.226c.008-.064.025-.128.052-.19.018-.042.041-.083.07-.122l-.059.097c.017-.033.036-.066.058-.097l1.021-1.437c.13-.181.338-.289.56-.289h2.145zM11.787 0c1.084 0 1.967.939 1.967 2.093 0 .667-.198 1.256-.486 1.762l-.112.186c-.774 1.21-2.032 1.89-2.108 1.93-.1.053-.211.08-.322.08-.11 0-.22-.027-.321-.08-.111-.059-2.707-1.46-2.707-3.878C7.698.939 8.581 0 9.666 0c.376 0 .745.116 1.06.33l.138-.086c.282-.159.6-.244.923-.244z" transform="translate(-159 -205) translate(159 205) translate(6 6)"/>
                        <path d="M11.736 12.518c-.302-.355-.64-.678-1.01-.962-1.122-.865-2.527-1.38-4.05-1.38-3.664 0-6.646 2.982-6.646 6.647 0 3.664 2.982 6.646 6.646 6.646 1.523 0 2.928-.515 4.05-1.38.195-.15.476-.168.653-.339.158-.152.215-.456.357-.623.99-1.16 1.587-2.663 1.587-4.304 0-1.641-.597-3.144-1.587-4.305zm-1.01 7.675c-.147.177-.416.21-.584.365-.17.156-.238.436-.426.57-.86.608-1.908.966-3.04.966-2.906 0-5.271-2.365-5.271-5.271 0-2.907 2.365-5.272 5.271-5.272 1.132 0 2.18.358 3.04.967.376.266.716.58 1.01.934.762.914 1.222 2.09 1.222 3.37 0 1.28-.46 2.457-1.222 3.371z" transform="translate(-159 -205) translate(159 205) translate(6 6)"/>
                        <path d="M14.776 10.176c-1.523 0-2.928.515-4.05 1.38-.37.284-.708.607-1.01.962-.99 1.16-1.587 2.664-1.587 4.305 0 1.64.598 3.144 1.587 4.304.376-.266.716-.58 1.01-.934-.762-.914-1.221-2.09-1.221-3.37 0-1.28.459-2.457 1.221-3.37.294-.354.635-.669 1.01-.935.86-.609 1.909-.967 3.04-.967 2.906 0 5.271 2.365 5.271 5.272 0 2.906-2.365 5.271-5.271 5.271-1.131 0-2.18-.358-3.04-.967-.302.355-.64.678-1.01.962 1.122.865 2.527 1.38 4.05 1.38 3.665 0 6.646-2.982 6.646-6.646 0-3.665-2.981-6.647-6.646-6.647z" transform="translate(-159 -205) translate(159 205) translate(6 6)"/>
                    </g>
                </g>
            </g>
        </g>
    </g>
</svg>
