<svg width="20" height="20" viewBox="0 0 20 20" fill="none" xmlns="http://www.w3.org/2000/svg">
<path d="M18.3199 9.06824C17.8598 9.06824 17.4866 8.69501 17.4866 8.23496C17.4866 5.89747 16.5765 3.70081 14.924 2.04737C14.5982 1.7216 14.5982 1.19501 14.924 0.869087C15.2498 0.543312 15.7765 0.543312 16.1023 0.869087C18.0699 2.83656 19.1531 5.45252 19.1531 8.23496C19.1531 8.69501 18.7799 9.06824 18.3199 9.06824Z" fill="#FFB800"/>
<path d="M1.65359 9.06824C1.1937 9.06824 0.820312 8.69501 0.820312 8.23496C0.820312 5.45252 1.90369 2.83656 3.87115 0.869087C4.19693 0.543312 4.72366 0.543312 5.04944 0.869087C5.37537 1.19501 5.37537 1.7216 5.04944 2.04737C3.39691 3.6999 2.48703 5.89747 2.48703 8.23496C2.48703 8.69501 2.11365 9.06824 1.65359 9.06824Z" fill="#FFB800"/>
<path d="M17.8036 14.0942C16.5435 13.0292 15.821 11.4725 15.821 9.8233V7.5C15.821 4.56757 13.6427 2.14005 10.821 1.7334V0.833282C10.821 0.372467 10.4476 0 9.98773 0C9.52768 0 9.1543 0.372467 9.1543 0.833282V1.7334C6.33188 2.14005 4.1543 4.56757 4.1543 7.5V9.8233C4.1543 11.4725 3.43179 13.0292 2.1644 14.1008C1.84015 14.3784 1.6543 14.7816 1.6543 15.2083C1.6543 16.0126 2.30844 16.6667 3.11273 16.6667H16.8627C17.6669 16.6667 18.321 16.0126 18.321 15.2083C18.321 14.7816 18.1352 14.3784 17.8036 14.0942Z" fill="#FFCF54"/>
<path d="M9.98746 20C11.4966 20 12.7591 18.9241 13.0491 17.5H6.92578C7.2157 18.9241 8.47821 20 9.98746 20Z" fill="#FF5C00"/>
</svg>
