<svg width="50" height="52" viewBox="0 0 50 52" fill="none" xmlns="http://www.w3.org/2000/svg">
<g opacity="0.16835">
<path fill-rule="evenodd" clip-rule="evenodd" d="M12.64 13.3479H51.36C52.8162 13.3522 53.9957 14.5211 54 15.9643V40.3837C53.9957 41.8269 52.8162 42.9958 51.36 43.0001H12.64C11.1838 42.9958 10.0043 41.8269 10 40.3837V15.9643C10.0043 14.5211 11.1838 13.3522 12.64 13.3479ZM11.76 40.3837C11.76 40.8654 12.154 41.2558 12.64 41.2558H16.0808C15.7069 39.0626 13.9731 37.3443 11.76 36.9737V40.3837ZM11.76 19.3743V15.9643C11.76 15.4826 12.154 15.0921 12.64 15.0921H16.0808C15.7069 17.2854 13.9731 19.0037 11.76 19.3743ZM24.08 28.174C24.08 32.5089 27.6259 36.0231 32 36.0231C36.3721 36.0183 39.9151 32.5069 39.92 28.174C39.92 23.839 36.3741 20.3249 32 20.3249C27.6259 20.3249 24.08 23.839 24.08 28.174ZM52.24 40.3837C52.24 40.8654 51.846 41.2558 51.36 41.2558H47.9192C48.2931 39.0626 50.0269 37.3443 52.24 36.9737V40.3837ZM47.9192 15.0921C48.2931 17.2854 50.0269 19.0037 52.24 19.3743V15.9643C52.24 15.4826 51.846 15.0921 51.36 15.0921H47.9192Z" fill="#6CC4BF"/>
<path fill-rule="evenodd" clip-rule="evenodd" d="M26.2617 28.1739C26.2617 24.7402 29.0453 21.9565 32.4791 21.9565C35.9111 21.9609 38.6921 24.742 38.6965 28.1739C38.6965 31.6077 35.9129 34.3913 32.4791 34.3913C29.0453 34.3913 26.2617 31.6077 26.2617 28.1739ZM31.5909 31.7267C31.5909 32.2173 31.9886 32.6149 32.4791 32.6149C34.9306 32.612 36.9172 30.6254 36.9201 28.1739C36.9201 27.6834 36.5224 27.2857 36.0319 27.2857C35.5414 27.2857 35.1437 27.6834 35.1437 28.1739C35.1437 29.6456 33.9507 30.8385 32.4791 30.8385C31.9886 30.8385 31.5909 31.2362 31.5909 31.7267Z" fill="#6CC4BF"/>
<path d="M51.13 8.56512C51.13 6.9803 49.9621 5.69556 48.5213 5.69556H15.4778C14.0371 5.69556 12.8691 6.9803 12.8691 8.56512V11.4347H51.13V8.56512Z" fill="#6CC4BF"/>
<path d="M48.2605 1.86957C48.2605 0.284748 47.0828 -1 45.6301 -1H19.3257C17.873 -1 16.6953 0.284748 16.6953 1.86957V4.73913H48.2605V1.86957Z" fill="#6CC4BF"/>
</g>
</svg>
