<svg xmlns="http://www.w3.org/2000/svg" width="64" height="69" viewBox="0 0 64 69">
    <g fill="none" fill-rule="evenodd">
        <g>
            <g>
                <g fill="#F29061" transform="translate(-81 -222) translate(81 222)">
                    <circle cx="21" cy="21" r="21" opacity=".405"/>
                    <circle cx="21" cy="21" r="14.609" opacity=".467"/>
                    <circle cx="21" cy="21" r="8.217"/>
                </g>
                <g fill="#FFF" fill-rule="nonzero">
                    <path d="M44.356 11.536L35.101 1.37c-1.775-1.78-4.856-1.792-6.662.015-.583.583-.982 1.284-1.189 2.032-1.796-1.378-4.538-1.228-6.194.429-.583.583-.982 1.284-1.193 2.03-1.792-1.378-4.536-1.22-6.19.43-.573.574-.967 1.26-1.18 1.986L8.13 3.932c-1.833-1.831-4.81-1.836-6.664.014-1.833 1.831-1.833 4.814 0 6.647l16.754 16.754-9.932 1.56c-2.688.385-4.713 2.718-4.713 5.432 0 2.035 1.656 3.692 3.691 3.692h23.205c3.612 0 7.011-1.408 9.575-3.967l3.869-3.872c2.554-2.552 3.96-5.948 3.96-9.558 0-3.371-1.25-6.603-3.52-9.098zm-2.182 16.919l-3.87 3.871c-2.093 2.092-4.877 3.243-7.832 3.243H7.267c-.676 0-1.23-.55-1.23-1.23 0-1.496 1.117-2.783 2.613-3l12.342-1.94c.458-.07.834-.393.98-.833.142-.438.027-.923-.3-1.25L3.206 8.85c-.871-.873-.871-2.294.015-3.182.438-.435 1.011-.655 1.585-.655.573 0 1.146.22 1.584.658l7.226 7.225c.017.02.04.04.059.059l5.03 5.028c.48.48 1.26.48 1.74 0s.48-1.26 0-1.74l-5.072-5.072c-.83-.876-.815-2.267.056-3.14.847-.842 2.319-.847 3.165 0l2.42 2.421c.014.015.027.03.041.042l2.57 2.567c.48.48 1.26.48 1.74 0s.48-1.26 0-1.74l-2.6-2.596c-.839-.877-.829-2.277.047-3.155.845-.842 2.319-.847 3.165 0l2.57 2.579c.002.002.002.005.004.005l.003.002.01.005s0 .002.002.002l.003.003.002.002h.005c.487.453 1.245.44 1.713-.032.477-.48.477-1.257-.003-1.737l-.147-.148c-.832-.876-.82-2.269.054-3.142.846-.842 2.357-.805 3.125-.042l9.214 10.127c1.858 2.042 2.88 4.683 2.88 7.442 0 2.95-1.153 5.729-3.24 7.818z" transform="translate(-81 -222) translate(81 222) rotate(25 -21.334 52.947)"/>
                </g>
            </g>
        </g>
    </g>
</svg>
