<svg xmlns="http://www.w3.org/2000/svg" width="42" height="42" viewBox="0 0 42 42">
    <g fill="none" fill-rule="evenodd">
        <g>
            <g>
                <g>
                    <path d="M0 0H42V42H0z" transform="translate(-36 -438) translate(16 427) translate(20 11)"/>
                    <g fill-rule="nonzero">
                        <path fill="#D6D7F4" d="M0.615 3.435L25.527 3.435 25.527 6.409 0.615 6.409z" transform="translate(-36 -438) translate(16 427) translate(20 11) translate(3 9)"/>
                        <path fill="#8F91D0" d="M20.185 10.84c0 .751-.405 1.405-1.015 1.758-.297.171-.647.272-1.018.272-1.12 0-2.026-.907-2.026-2.03 0-1.122.907-2.03 2.026-2.03.371 0 .72.101 1.018.276.61.35 1.015 1.003 1.015 1.754z" transform="translate(-36 -438) translate(16 427) translate(20 11) translate(3 9)"/>
                        <path fill="#D6D7F4" d="M22.774 10.842c0 .747-.404 1.403-1.016 1.757-.297.168-.645.27-1.015.27-.281 0-.55-.057-.797-.164.505-.477.802-1.15.802-1.863 0-.713-.297-1.386-.797-1.863.242-.112.51-.168.792-.168.37 0 .718.1 1.015.275.612.348 1.016 1.004 1.016 1.756z" transform="translate(-36 -438) translate(16 427) translate(20 11) translate(3 9)"/>
                        <g fill="#4042AB">
                            <path d="M35.968 9.975c0-1.13-.916-2.048-2.042-2.048H27.77c-.31 0-.561.251-.561.561 0 .31.25.561.56.561h6.157c.507 0 .92.416.92.926v.792H27.77c-.31 0-.561.25-.561.56 0 .31.25.562.56.562h7.077v1.852H27.72c-.31 0-.561.251-.561.561 0 .31.25.561.56.561h7.128v6.73c0 .512-.41.928-.92.928H12.1c-.005 0-.01.003-.016.003h-.06c-.533 0-.966-.433-.966-.966v-4.124c0-.31-.25-.562-.561-.562-.31 0-.561.252-.561.562v4.124c0 1.152.936 2.088 2.087 2.088h21.904c1.124 0 2.045-.921 2.045-2.051 0-1.168 0 4.27-.003-11.62z" transform="translate(-36 -438) translate(16 427) translate(20 11) translate(3 9)"/>
                            <path d="M26.086 13.7V2.08c0-1.13-.917-2.05-2.045-2.05H2.103c-1.13 0-2.05.92-2.05 2.05v11.584c0 1.15.935 2.085 2.085 2.085h21.903c1.128 0 2.045-.92 2.045-2.05zm-24.91-.035V2.08c0-.511.416-.927.927-.927h21.938c.509 0 .923.416.923.927V13.7c0 .511-.414.927-.923.927H2.138c-.53 0-.962-.432-.962-.962z" transform="translate(-36 -438) translate(16 427) translate(20 11) translate(3 9)"/>
                        </g>
                    </g>
                </g>
            </g>
        </g>
    </g>
</svg>
