<svg xmlns="http://www.w3.org/2000/svg" width="19" height="19" viewBox="0 0 19 19">
    <g fill="none" fill-rule="evenodd">
        <g>
            <g transform="translate(-14 -122) translate(14 122)">
                <circle cx="9.5" cy="9.5" r="9.5" fill="#61C0A2"/>
                <g fill="#FFF" fill-rule="nonzero">
                    <path d="M8.749 6.6L7.494 5.345c-.448-.448-1.21-.269-1.39.314-.134.404-.582.628-.986.538-.896-.224-2.107-1.39-2.33-2.33-.135-.404.134-.853.537-.987.583-.18.762-.941.314-1.39L2.384.235c-.359-.313-.897-.313-1.21 0l-.852.852c-.852.897.09 3.272 2.196 5.379 2.107 2.107 4.483 3.093 5.38 2.196l.85-.851c.315-.359.315-.897 0-1.21z" transform="translate(5 5)"/>
                </g>
            </g>
        </g>
    </g>
</svg>
