<svg xmlns="http://www.w3.org/2000/svg" width="20" height="20" viewBox="0 0 20 20">
    <g fill="none" fill-rule="evenodd">
        <g>
            <g transform="translate(-156 -127) translate(156 127)">
                <circle cx="10" cy="10" r="10" fill="#70717A"/>
                <path stroke="#FFF" stroke-linecap="round" stroke-linejoin="round" stroke-width="1.4" d="M6.5 6.5L13.571 13.571"/>
                <path stroke="#FFF" stroke-linecap="round" stroke-linejoin="round" stroke-width="1.4" d="M6.5 6.5L13.571 13.571" transform="matrix(-1 0 0 1 20.071 0)"/>
            </g>
        </g>
    </g>
</svg>
