<svg xmlns="http://www.w3.org/2000/svg" width="26" height="26" viewBox="0 0 26 26">
    <g fill="none" fill-rule="evenodd">
        <g>
            <g>
                <g>
                    <path d="M0 0H26V26H0z" transform="translate(-748 -1228) translate(748 1228)"/>
                </g>
                <g fill="#8B6ADC" fill-rule="nonzero">
                    <path d="M18.771 0h-3.195c-3.806.007-7.13 2.573-8.101 6.253.849 1.058 1.312 2.375 1.311 3.732v.633l8.105-8.105c.157-.151.406-.149.56.005.154.154.156.403.005.56l-8.67 8.67v1.032h2.796c4.63-.005 8.382-3.757 8.387-8.387V1.198C19.97.536 19.433 0 18.771 0z" transform="translate(-748 -1228) translate(748 1228) translate(3 7)"/>
                    <path d="M7.423 12.78l-4.91-4.91c-.151-.156-.149-.405.005-.56.154-.153.403-.155.56-.004l4.91 4.91V9.985c-.004-2.866-2.326-5.19-5.192-5.192H1.198C.536 4.793 0 5.329 0 5.99v1.597c.003 2.866 2.326 5.189 5.192 5.192h2.231z" transform="translate(-748 -1228) translate(748 1228) translate(3 7)"/>
                </g>
            </g>
        </g>
    </g>
</svg>
