<svg xmlns="http://www.w3.org/2000/svg" width="78" height="78" viewBox="0 0 78 78">
    <g fill="none" fill-rule="evenodd">
        <g fill="#FFF">
            <g transform="translate(-141 -194) translate(141 194)">
                <circle cx="39" cy="39" r="38.5" fill-opacity=".1" stroke="#FFF"/>
                <g fill-rule="nonzero">
                    <path d="M38.963 33.457c.93-2.357 1.41-4.845 1.41-7.4 0-6.007-2.643-11.406-6.823-15.105l1.091-1.091.595.595c.164.164.38.246.594.246.215 0 .43-.082.595-.246.328-.329.328-.861 0-1.189L34.047 6.89c-.329-.328-.86-.328-1.189 0-.328.328-.328.86 0 1.188l.595.595-1.21 1.21C29.088 7.53 25.226 6.078 21.04 5.905V4.203h2.101c1.16 0 2.101-.943 2.101-2.102C25.242.943 24.3 0 23.142 0h-5.884c-1.16 0-2.102.943-2.102 2.101 0 1.159.942 2.102 2.102 2.102h2.1v1.702c-4.61.19-8.826 1.935-12.136 4.724L5.265 8.673l.594-.595c.329-.328.329-.86 0-1.188-.328-.328-.86-.328-1.188 0L3.484 8.078h-.002v.002L2.293 9.267c-.329.329-.329.86 0 1.189.164.164.379.246.594.246.215 0 .43-.082.594-.246l.595-.595 1.902 1.903C2.305 15.419.027 20.477.027 26.056.027 37.18 9.077 46.23 20.2 46.23c2.552 0 5.034-.478 7.387-1.405 1.48 1.684 3.642 2.754 6.054 2.755h.003c4.447 0 8.068-3.618 8.07-8.067 0-2.412-1.069-4.575-2.751-6.055zM16.837 2.101c0-.232.189-.42.42-.42h5.884c.232 0 .42.188.42.42 0 .232-.188.42-.42.42h-5.883c-.232 0-.42-.188-.42-.42zM20.2 44.548c-10.197 0-18.492-8.296-18.492-18.492 0-10.196 8.295-18.491 18.492-18.491 10.196 0 18.49 8.295 18.49 18.491 0 2.203-.399 4.347-1.152 6.39-.831-.46-1.752-.769-2.727-.911.44-1.176.745-2.404.892-3.664.485-4.141-.671-8.224-3.257-11.495-2.585-3.27-6.29-5.34-10.432-5.824-3.48-.406-6.903.335-9.894 2.147-.398.24-.524.758-.284 1.154.24.397.758.525 1.155.284 2.668-1.616 5.718-2.277 8.827-1.915 3.696.432 7.001 2.278 9.309 5.197 2.307 2.919 3.34 6.561 2.906 10.257-.148 1.274-.468 2.513-.95 3.684-.015.035-.012.072-.021.109-1.935.137-3.737.948-5.123 2.333-1.379 1.378-2.19 3.17-2.335 5.094-2.205.93-4.634 1.273-7.024.995-7.628-.893-13.108-7.826-12.216-15.454.055-.461-.276-.879-.736-.933-.462-.059-.88.276-.933.737-1 8.55 5.14 16.319 13.69 17.32.604.07 1.212.105 1.817.105 1.868 0 3.718-.352 5.464-1.006.14.98.45 1.904.912 2.738-2.04.751-4.179 1.15-6.378 1.15zm13.444 1.35h-.003c-3.522-.001-6.387-2.868-6.386-6.39 0-1.706.665-3.31 1.872-4.516s2.81-1.87 4.516-1.87h.002c1.707 0 3.31.665 4.517 1.872 1.206 1.207 1.87 2.811 1.87 4.517-.001 3.522-2.867 6.387-6.388 6.387z" transform="translate(18 15)"/>
                    <path d="M13.214 32.52c.2 0 .402-.072.563-.217l4.566-4.115c.426.241.912.39 1.436.39 1.622 0 2.942-1.32 2.942-2.942 0-1.621-1.32-2.942-2.942-2.942s-2.942 1.32-2.942 2.942c0 .485.13.936.338 1.34l-4.524 4.08c-.345.31-.372.841-.062 1.186.167.184.396.278.625.278zm6.565-8.145c.695 0 1.26.566 1.26 1.261s-.565 1.26-1.26 1.26c-.695 0-1.26-.565-1.26-1.26 0-.695.565-1.26 1.26-1.26zM7.01 19.345c.134.078.28.115.424.115.29 0 .57-.15.727-.417.43-.737.932-1.44 1.491-2.087.304-.351.265-.882-.086-1.186-.352-.304-.882-.265-1.185.087-.628.725-1.19 1.512-1.672 2.339-.234.4-.099.915.302 1.15zM33.648 34.462c-.465 0-.84.376-.84.84v5.043c0 .464.375.841.84.841.465 0 .84-.377.84-.84v-5.044c0-.464-.375-.84-.84-.84zM34.488 42.867c0 .464-.376.84-.84.84-.465 0-.84-.376-.84-.84 0-.464.375-.84.84-.84.464 0 .84.376.84.84z" transform="translate(18 15)"/>
                </g>
            </g>
        </g>
    </g>
</svg>
