<svg width="28" height="37" viewBox="0 0 28 37" fill="none" xmlns="http://www.w3.org/2000/svg">
<g opacity="0.24">
<path fill-rule="evenodd" clip-rule="evenodd" d="M2.34604 36.1007H27.3705C28.6662 36.1007 29.7165 35.0503 29.7165 33.7546V-0.653959C29.7165 -1.94964 28.6662 -3 27.3705 -3H2.34604C1.05036 -3 0 -1.94964 0 -0.653959V33.7546C0 35.0503 1.05036 36.1007 2.34604 36.1007ZM10.9482 -1.43597H14.0762V2.57654L12.9462 1.82346C12.6835 1.64813 12.341 1.64813 12.0782 1.82346L10.9482 2.57654V-1.43597ZM2.34604 -1.43597C1.91415 -1.43597 1.56403 -1.08585 1.56403 -0.653959V33.7546C1.56403 34.1865 1.91415 34.5367 2.34604 34.5367H4.69208V-1.43597H2.34604Z" fill="#FDD84F"/>
<path d="M11.7308 8.73022C10.4351 8.73022 9.38477 9.78058 9.38477 11.0763V17.3324C9.38477 18.6281 10.4351 19.6784 11.7308 19.6784H14.0768V22.0245C14.0768 22.3129 14.2356 22.578 14.4899 22.7141C14.7443 22.8502 15.0529 22.8352 15.2929 22.6751L19.7855 19.6784H22.679C23.9747 19.6784 25.025 18.6281 25.025 17.3324V11.0763C25.025 9.78058 23.9747 8.73022 22.679 8.73022H11.7308Z" fill="white"/>
<path d="M21.8966 27.4985H12.5125C12.0806 27.4985 11.7305 27.8487 11.7305 28.2805C11.7305 28.7124 12.0806 29.0626 12.5125 29.0626H21.8966C22.3285 29.0626 22.6787 28.7124 22.6787 28.2805C22.6787 27.8487 22.3285 27.4985 21.8966 27.4985Z" fill="#FDD84F"/>
<path d="M19.5503 13.4224H14.8582C14.4263 13.4224 14.0762 13.7725 14.0762 14.2044C14.0762 14.6363 14.4263 14.9864 14.8582 14.9864H19.5503C19.9822 14.9864 20.3323 14.6363 20.3323 14.2044C20.3323 13.7725 19.9822 13.4224 19.5503 13.4224Z" fill="#FDD84F"/>
</g>
</svg>
