<svg width="26" height="26" viewBox="0 0 26 26" fill="none" xmlns="http://www.w3.org/2000/svg">
<path d="M13 20.2349C12.7722 20.2349 12.5526 20.1523 12.3815 20.0024C11.7351 19.4373 11.1119 18.9061 10.5621 18.4376L10.5593 18.4352C8.94739 17.0615 7.55542 15.8752 6.58691 14.7067C5.50427 13.4003 5 12.1616 5 10.8085C5 9.49377 5.45081 8.28088 6.26929 7.39307C7.09753 6.49475 8.23401 6 9.46973 6C10.3933 6 11.2391 6.29199 11.9836 6.8678C12.3594 7.15845 12.7 7.51416 13 7.92908C13.3002 7.51416 13.6406 7.15845 14.0165 6.8678C14.761 6.29199 15.6068 6 16.5304 6C17.766 6 18.9026 6.49475 19.7308 7.39307C20.5493 8.28088 21 9.49377 21 10.8085C21 12.1616 20.4958 13.4003 19.4132 14.7065C18.4447 15.8752 17.0529 17.0614 15.4412 18.4349C14.8904 18.9042 14.2662 19.4362 13.6184 20.0027C13.4474 20.1523 13.2277 20.2349 13 20.2349Z" fill="#4042AB"/>
</svg>
