<svg width="16" height="15" viewBox="0 0 16 15" fill="none" xmlns="http://www.w3.org/2000/svg">
<path d="M8 14.2349C7.77222 14.2349 7.55261 14.1523 7.38147 14.0024C6.73511 13.4373 6.11194 12.9061 5.56213 12.4376L5.55933 12.4352C3.94739 11.0615 2.55542 9.87524 1.58691 8.70667C0.504272 7.40027 0 6.16162 0 4.80847C0 3.49377 0.450806 2.28088 1.26929 1.39307C2.09753 0.494751 3.23401 0 4.46973 0C5.39331 0 6.23914 0.291992 6.98364 0.867798C7.35938 1.15845 7.69995 1.51416 8 1.92908C8.30017 1.51416 8.64062 1.15845 9.01648 0.867798C9.76099 0.291992 10.6068 0 11.5304 0C12.766 0 13.9026 0.494751 14.7308 1.39307C15.5493 2.28088 16 3.49377 16 4.80847C16 6.16162 15.4958 7.40027 14.4132 8.70654C13.4447 9.87524 12.0529 11.0614 10.4412 12.4349C9.89038 12.9042 9.26624 13.4362 8.61841 14.0027C8.44739 14.1523 8.22766 14.2349 8 14.2349Z" fill="#4042AB"/>
</svg>
