<svg width="24" height="24" viewBox="0 0 24 24" fill="none" xmlns="http://www.w3.org/2000/svg">
<path d="M8 6L14.1142 11.2407C14.5798 11.6398 14.5798 12.3602 14.1142 12.7593L8 18" stroke="#C5C5C5" stroke-width="1.2" stroke-linecap="round" stroke-linejoin="round"/>
</svg>
