<svg width="30" height="26" viewBox="0 0 30 26" fill="none" xmlns="http://www.w3.org/2000/svg">
<path d="M28.9607 14.6209C28.9606 14.6208 28.9606 14.6207 28.9606 14.6206L23.6741 1.3466C23.5619 1.06456 23.2422 0.926873 22.9601 1.03907C22.9599 1.03914 22.9597 1.03921 22.9595 1.03934L1.51282 9.57922C1.42536 9.61701 1.34951 9.67733 1.29296 9.754C1.1146 9.84669 1.00192 10.0301 1 10.2311V24.5219C1 24.8255 1.2461 25.0716 1.54965 25.0716H24.6348C24.9384 25.0716 25.1845 24.8255 25.1845 24.5219V16.7169L28.6539 15.3351C28.9358 15.2227 29.0732 14.9029 28.9607 14.6209ZM24.0852 23.9723H2.09929V10.7807H24.0852V23.9723ZM10.1709 9.6842L19.3742 6.01695C20.1955 6.88031 21.3337 7.37101 22.5253 7.37568L23.4432 9.6842H10.1709ZM25.1845 15.5363V10.2311C25.1845 9.92756 24.9384 9.68145 24.6348 9.68145H24.626L23.4613 6.75623C23.4484 6.73184 23.4334 6.70861 23.4163 6.68697C23.3573 6.42225 23.1122 6.24162 22.8419 6.26374C21.7331 6.36481 20.6485 5.89775 19.9601 5.02264C19.7888 4.81123 19.4877 4.75867 19.2549 4.89952C19.2288 4.90261 19.2029 4.90742 19.1774 4.91381L7.9415 9.38794C7.80553 9.44126 7.69677 9.54699 7.63974 9.68145H4.22753L22.8562 2.26396L27.7365 14.5183L25.1845 15.5363Z" fill="white" stroke="white" stroke-width="0.2"/>
<path d="M3.59167 20.2616C4.65881 20.577 5.49386 21.411 5.81059 22.4777C5.88006 22.7106 6.09421 22.8701 6.33716 22.8702C6.36567 22.8684 6.39398 22.8641 6.4218 22.8575C6.44647 22.8646 6.47168 22.8697 6.4971 22.8729H19.6886C19.7113 22.87 19.7337 22.8654 19.7557 22.8592C20.0303 22.926 20.3071 22.7576 20.3739 22.483C20.3741 22.4819 20.3744 22.481 20.3746 22.4799C20.6905 21.4121 21.5257 20.5769 22.5935 20.261C22.8525 20.1819 23.0134 19.9238 22.9706 19.6564C22.9779 19.6297 22.9832 19.6025 22.9865 19.5751V15.1779C22.9833 15.1503 22.9778 15.1231 22.97 15.0965C23.0131 14.8291 22.8521 14.5709 22.593 14.4919C21.5251 14.1761 20.6902 13.3406 20.3751 12.2725C20.2956 12.0117 20.035 11.8504 19.7661 11.8954C19.7407 11.8883 19.7148 11.8832 19.6886 11.88H6.4971C6.46941 11.8833 6.442 11.8888 6.41521 11.8965C6.14787 11.8539 5.88995 12.0147 5.81059 12.2736C5.49448 13.3412 4.65936 14.1761 3.59167 14.4919C3.33271 14.5711 3.17181 14.8291 3.21461 15.0965C3.20746 15.1233 3.20231 15.1504 3.19922 15.1779V19.5751C3.20238 19.6009 3.20753 19.6265 3.21461 19.6515C3.16954 19.9206 3.33079 20.1815 3.59167 20.2616ZM4.29851 15.401C5.40221 14.9578 6.27697 14.083 6.72026 12.9793H19.4649C19.9084 14.083 20.7834 14.9578 21.8872 15.401V19.3519C20.7839 19.7957 19.9093 20.6703 19.4655 21.7736H6.72026C6.27649 20.6703 5.40186 19.7957 4.29851 19.3519V15.401Z" fill="white" stroke="white" stroke-width="0.2"/>
<path d="M13.0928 20.6744C14.9142 20.6744 16.3907 19.1979 16.3907 17.3765C16.3907 15.5551 14.9142 14.0786 13.0928 14.0786C11.2714 14.0786 9.79492 15.5551 9.79492 17.3765C9.79671 19.1971 11.2722 20.6726 13.0928 20.6744ZM13.0928 15.1779C14.307 15.1779 15.2914 16.1623 15.2914 17.3765C15.2914 18.5907 14.307 19.5751 13.0928 19.5751C11.8786 19.5751 10.8942 18.5907 10.8942 17.3765C10.8942 16.1623 11.8786 15.1779 13.0928 15.1779Z" fill="white" stroke="white" stroke-width="0.2"/>
<path d="M7.04713 18.2009C7.50244 18.2009 7.8716 17.8318 7.8716 17.3765C7.8716 16.9212 7.50244 16.552 7.04713 16.552C6.59181 16.552 6.22266 16.9212 6.22266 17.3765C6.22266 17.8319 6.59181 18.2009 7.04713 18.2009ZM7.04713 17.1016C7.1989 17.1016 7.32195 17.2247 7.32195 17.3765C7.32195 17.5282 7.1989 17.6513 7.04713 17.6513C6.89536 17.6513 6.7723 17.5282 6.7723 17.3765C6.7723 17.2247 6.89536 17.1016 7.04713 17.1016Z" fill="white" stroke="white" stroke-width="0.2"/>
<path d="M19.1389 18.2009C19.5942 18.2009 19.9634 17.8318 19.9634 17.3765C19.9634 16.9212 19.5942 16.552 19.1389 16.552C18.6836 16.552 18.3145 16.9212 18.3145 17.3765C18.3145 17.8319 18.6836 18.2009 19.1389 18.2009ZM19.1389 17.1016C19.2907 17.1016 19.4137 17.2247 19.4137 17.3765C19.4137 17.5282 19.2907 17.6513 19.1389 17.6513C18.9872 17.6513 18.8641 17.5282 18.8641 17.3765C18.8641 17.2247 18.9872 17.1016 19.1389 17.1016Z" fill="white" stroke="white" stroke-width="0.2"/>
</svg>
