<svg xmlns="http://www.w3.org/2000/svg" width="26" height="26" viewBox="0 0 26 26">
    <g fill="none" fill-rule="evenodd">
        <g>
            <g>
                <path d="M0 0H26V26H0z" transform="translate(-306 -231) translate(306 231)"/>
                <g fill="#D1D2D6" transform="translate(-306 -231) translate(306 231) translate(12 6)">
                    <circle cx="1.5" cy="6.5" r="1.5"/>
                    <circle cx="1.5" cy="1.5" r="1.5"/>
                    <circle cx="1.5" cy="11.5" r="1.5"/>
                </g>
            </g>
        </g>
    </g>
</svg>
