<svg xmlns="http://www.w3.org/2000/svg" width="21" height="20" viewBox="0 0 21 20">
    <g fill="none" fill-rule="evenodd">
        <g fill="#FFF" fill-rule="nonzero">
            <g>
                <path d="M19.887 6.685h-3.302c-.676-.87-1.471-1.641-2.363-2.29-2.41-1.807-2.923-2.338-3.682-3.44C9.995.17 8.99-.147 8.093.184c-.896.33-1.456 1.223-1.362 2.174.108 1.5.492 2.966 1.133 4.326H5.725c-.79-.001-1.515.44-1.876 1.143-.36.703-.297 1.549.165 2.19-.621.382-1 1.058-1 1.787 0 .729.379 1.405 1 1.787-.456.62-.528 1.443-.187 2.133H2.109c-1.165 0-2.109.944-2.109 2.11 0 1.164.944 2.109 2.11 2.109h8.737c2.001 0 4.351-.645 5.225-2.411h3.815c.333 0 .603-.27.603-.603V7.288c0-.333-.27-.603-.603-.603zM5.725 7.891h3.013c.5 0 .904.404.904.904 0 .499-.405.904-.904.904H5.725c-.5 0-.904-.405-.904-.904 0-.5.405-.904.904-.904zm3.917 3.917c0 .5-.405.904-.904.904H5.122c-.499 0-.904-.405-.904-.904 0-.5.405-.904.904-.904h3.616c.5 0 .904.405.904.904zm-4.82 3.013c0-.5.404-.904.903-.904h3.013c.5 0 .904.405.904.904 0 .5-.405.904-.904.904H5.725c-.5 0-.904-.405-.904-.904zm14.462 1.507H15.67c-.26-.001-.49.164-.573.41-.458 1.398-2.44 2-4.249 2H2.11c-.499 0-.904-.404-.904-.904 0-.499.405-.904.904-.904h6.63c.858.004 1.633-.515 1.957-1.31.323-.796.13-1.709-.487-2.305.55-.508.78-1.274.602-2.001.458.329.956.596 1.483.795l1.344.537c.2.08.427.046.597-.088.169-.133.254-.347.222-.56-.03-.213-.173-.394-.373-.473l-1.344-.537c-1.748-.687-1.893-1.29-1.893-1.892.003-.034.003-.068 0-.102v-.2c-.003-.903-.582-1.703-1.44-1.988-.735-.783-1.26-2.41-1.476-4.562-.027-.248.054-.496.223-.68.186-.193.446-.295.714-.28.267.015.514.146.678.357.886 1.284 1.585 1.947 3.953 3.725.874.615 1.638 1.373 2.26 2.242.11.176.304.283.512.283h3.013v8.437z" transform="translate(-198 -276) translate(198 276)"/>
            </g>
        </g>
    </g>
</svg>
