<svg xmlns="http://www.w3.org/2000/svg" width="40" height="40" viewBox="0 0 40 40">
    <g fill="none" fill-rule="evenodd">
        <g>
            <g>
                <path d="M0 0H40V40H0z" transform="translate(-272 -297) translate(272 297)"/>
                <g fill="#4042AB" fill-rule="nonzero">
                    <path d="M32.068 12.74C30.462 7.284 24.737 4.163 19.28 5.77V4.342c0-1.292-1.154-2.417-3.019-3.195C14.557.44 12.212.005 9.64.005c-2.574 0-4.915.436-6.624 1.142C1.162 1.928 0 3.05 0 4.342v11.214c0 1.293 1.142 2.417 3.018 3.184 1.706.706 4.05 1.141 6.624 1.141.613 0 1.22-.026 1.8-.072.43-.035.852-.083 1.265-.143 2.041 4.818 7.37 7.339 12.39 5.861 5.456-1.606 8.577-7.33 6.97-12.787zM3.466 2.236c1.563-.645 3.741-1.057 6.17-1.057s4.613.4 6.182 1.049c1.418.583 2.289 1.33 2.289 2.103 0 .48-.317.93-.898 1.35l-.066.041c-.952.617-2.01 1.051-3.12 1.281-1.124.262-2.27.416-3.423.462-.47.02-1.443.02-1.923 0-1.152-.042-2.298-.193-3.422-.45-1.106-.229-2.161-.66-3.111-1.272l-.076-.05c-.572-.421-.897-.883-.892-1.354 0-.772.875-1.522 2.29-2.103zm7.878 16.41c-.549.044-1.13.068-1.71.068-2.43 0-4.614-.401-6.183-1.05-1.417-.583-2.289-1.33-2.289-2.102.006-.233.08-.46.212-.651.125-.186.274-.354.445-.5.976.58 2.044.993 3.157 1.22.686.14 2.034.372 2.72.43 1.396.099 2.799.088 4.194-.032l.03.358c.05.728.179 1.448.383 2.15l.003.002c-.312.04-.633.077-.962.108zm.578-3.802l.003.006c-1.642.173-3.3.158-4.938-.044-2.598-.29-3.835-.924-4.922-1.632-.604-.39-.894-.88-.894-1.351.003-.237.077-.468.212-.663.124-.186.274-.354.444-.5.982.572 2.046.988 3.155 1.235 1.376.295 2.777.466 4.183.509 1.103.035 2.207-.023 3.3-.174-.24.857-.422 1.731-.543 2.614zM8.68 11.201c-1.154-.032-2.3-.187-3.422-.462-1.107-.228-2.161-.66-3.111-1.272L2.07 9.42C1.5 9 1.174 8.54 1.174 8.07c.005-.233.079-.46.212-.651.124-.186.274-.354.444-.5.984.567 2.049.978 3.158 1.22 1.368.327 2.768.497 4.174.509h1.305c1.188-.059 2.37-.204 3.538-.433l.151-.035.14-.032c.432-.102.842-.218 1.228-.349-.215.182-.419.37-.612.564-.76.76-1.398 1.633-1.889 2.588-1.437.218-2.89.301-4.343.25zm13.99 13.552c-5.03.269-9.326-3.591-9.594-8.622v-.482c.045-1.346.34-2.67.871-3.908.09-.185.276-.54.38-.714.405-.655.878-1.265 1.412-1.819.895-.9 1.967-1.605 3.15-2.068l.037-.015h-.003c.889-.34 1.825-.539 2.775-.59 5.03-.268 9.326 3.592 9.595 8.623.269 5.03-3.591 9.326-8.622 9.595z" transform="translate(-272 -297) translate(272 297) translate(3 7)"/>
                    <path d="M24.835 15.64c-.628-.378-1.327-.62-2.054-.712v-2.492c.347.036.688.108 1.02.215.294.11.597.193.906.247.442 0 .663-.24.663-.72 0-.235-.176-.443-.526-.625-.657-.282-1.36-.437-2.074-.456v-.892c0-.321-.26-.581-.581-.581-.321 0-.581.26-.581.58l.003.936c-.634.097-1.233.351-1.744.738-.657.444-1.051 1.185-1.051 1.978-.002.583.261 1.136.715 1.502.233.174.493.31.77.401.275.103.559.185.848.244.13.025.291.052.485.081v2.7c-.383-.053-.76-.14-1.127-.26-.359-.127-.727-.224-1.101-.29-.456 0-.683.273-.683.82 0 .298.37.567 1.11.807.583.189 1.188.304 1.8.343v.88c0 .32.26.581.582.581.32 0 .58-.26.58-.581v-.912c.695-.055 1.361-.3 1.927-.706.644-.473 1.013-1.235.985-2.034 0-.817-.29-1.414-.872-1.792zm-3.227-.886l-.16-.04c-.186-.039-.369-.091-.546-.158-.18-.046-.34-.148-.46-.29-.09-.142-.134-.308-.127-.476 0-.407.215-.784.563-.994.221-.151.469-.26.73-.32v2.278zm2.573 2.76c.006.404-.212.778-.566.973-.259.157-.546.262-.845.308v-2.51h.011c.31.067.611.172.895.314.335.177.533.536.505.915z" transform="translate(-272 -297) translate(272 297) translate(3 7)"/>
                    <path d="M22.194 7.44c-2.18-.004-4.27.861-5.81 2.404-1.54 1.54-2.406 3.63-2.407 5.809 0 4.537 3.677 8.216 8.214 8.217 4.537 0 8.216-3.676 8.217-8.214.001-4.537-3.676-8.216-8.214-8.217zm4.98 13.18c-2.75 2.75-7.209 2.75-9.959 0s-2.75-7.209 0-9.96c2.75-2.75 7.209-2.75 9.959 0 1.322 1.32 2.065 3.112 2.062 4.98 0 1.868-.742 3.659-2.062 4.98z" transform="translate(-272 -297) translate(272 297) translate(3 7)"/>
                </g>
            </g>
        </g>
    </g>
</svg>
