<svg xmlns="http://www.w3.org/2000/svg" width="48" height="48" viewBox="0 0 48 48">
    <g fill="none" fill-rule="evenodd" opacity=".391">
        <g>
            <g>
                <path d="M0 0H48V48H0z" transform="translate(-73 -694) translate(73 694)"/>
                <g fill="#000" fill-rule="nonzero" opacity=".708">
                    <path d="M20.942 0H2.513C1.125 0 0 1.125 0 2.513v13.403c0 1.387 1.125 2.513 2.513 2.513h18.429c1.387 0 2.513-1.126 2.513-2.513V2.513C23.455 1.125 22.329 0 20.942 0zm.837 2.513v.98c-.269-.095-.552-.143-.837-.142H5.864V1.675h15.078c.462 0 .837.375.837.838zM2.513 1.675h1.675v1.676H2.513c-.463 0-.838-.375-.838-.838 0-.463.375-.838.838-.838zm18.429 15.078H2.513c-.463 0-.838-.375-.838-.837V4.884c.27.094.553.142.838.142h18.429c.462 0 .837.375.837.838v1.675h-2.513c-1.85 0-3.35 1.5-3.35 3.35 0 1.851 1.5 3.351 3.35 3.351h2.513v1.676c0 .462-.375.837-.837.837zm.837-4.188h-2.513c-.925 0-1.675-.75-1.675-1.675 0-.926.75-1.676 1.675-1.676h2.513v3.35z" transform="translate(-73 -694) translate(73 694) translate(12 15)"/>
                    <path d="M12.565 10.052H10.89c-.463 0-.838.375-.838.838 0 .462.375.837.838.837h1.675c.463 0 .838-.375.838-.837 0-.463-.375-.838-.838-.838z" transform="translate(-73 -694) translate(73 694) translate(12 15)"/>
                </g>
            </g>
        </g>
    </g>
</svg>
