<svg xmlns="http://www.w3.org/2000/svg" width="28" height="28" viewBox="0 0 28 28">
    <g fill="none" fill-rule="evenodd">
        <g>
            <g>
                <path d="M0 0H28V28H0z" transform="translate(-16 -119) translate(16 119)"/>
                <g fill-rule="nonzero">
                    <path fill="#5490F9" d="M19.96 9.96C19.96 4.434 15.46-.04 9.927 0 4.445.04-.006 4.563.04 10.046c.039 4.514 3.08 8.31 7.224 9.491.375.107.695.352.89.69l1.264 2.193c.258.447.904.447 1.162 0l1.265-2.193c.194-.338.514-.583.889-.69 4.17-1.188 7.224-5.026 7.224-9.578z" transform="translate(-16 -119) translate(16 119) translate(4 3)"/>
                    <path fill="#5490F9" d="M9.928 0c-.333.003-.663.022-.988.057 5.002.529 8.9 4.76 8.9 9.902 0 4.552-3.055 8.39-7.225 9.579-.375.106-.695.351-.89.689l-.785 1.362.48.831c.257.447.903.447 1.16 0l1.266-2.193c.194-.338.514-.583.889-.69 4.17-1.188 7.224-5.026 7.224-9.578C19.96 4.435 15.461-.039 9.928 0z" transform="translate(-16 -119) translate(16 119) translate(4 3)"/>
                    <path fill="#F1F1F4" d="M10.197 11.488h-.394c-.511 0-.933-.4-.962-.91l-.28-4.965c-.046-.826.611-1.521 1.439-1.521.828 0 1.485.695 1.439 1.521l-.28 4.965c-.029.51-.45.91-.962.91z" transform="translate(-16 -119) translate(16 119) translate(4 3)"/>
                    <path fill="#F1F1F4" d="M10 4.092c-.133 0-.261.018-.383.051.638.175 1.095.777 1.056 1.47l-.28 4.965c-.025.447-.352.809-.776.892.06.012.123.018.186.018h.394c.511 0 .933-.4.962-.91l.28-4.965c.046-.826-.611-1.521-1.439-1.521zM10.312 14.995h-.624c-.406 0-.734-.329-.734-.734v-.503c0-.406.328-.734.734-.734h.624c.406 0 .734.328.734.734v.503c0 .405-.328.734-.734.734z" transform="translate(-16 -119) translate(16 119) translate(4 3)"/>
                    <path fill="#F1F1F4" d="M10.312 13.024h-.624c-.024 0-.048 0-.07.003.371.036.663.349.663.73v.504c0 .381-.292.695-.664.73.023.002.047.004.07.004h.625c.406 0 .734-.329.734-.734v-.503c0-.406-.328-.734-.734-.734z" transform="translate(-16 -119) translate(16 119) translate(4 3)"/>
                </g>
            </g>
        </g>
    </g>
</svg>
