<svg xmlns="http://www.w3.org/2000/svg" width="48" height="48" viewBox="0 0 48 48">
    <g fill="none" fill-rule="evenodd">
        <g>
            <g>
                <path d="M0 0H48V48H0z" transform="translate(-73 -832) translate(73 832)"/>
                <g fill="#000" fill-rule="nonzero" stroke="#000" stroke-width=".3" opacity=".646">
                    <path d="M19.622 0h-3.079c-.356 0-.645.289-.645.645 0 .355.289.644.645.644h3.08c.6 0 1.088.489 1.088 1.089v3.079c0 .356.289.645.644.645.356 0 .645-.289.645-.645v-3.08C22 1.068 20.933 0 19.622 0zM.645 6.102c.355 0 .644-.289.644-.645v-3.08c0-.6.489-1.088 1.089-1.088h3.079c.356 0 .645-.289.645-.644C6.102.289 5.813 0 5.457 0h-3.08C1.068 0 0 1.067 0 2.378v3.079c0 .356.289.645.645.645zM5.457 20.71h-3.08c-.6 0-1.088-.488-1.088-1.088v-3.079c0-.356-.289-.645-.644-.645-.356 0-.645.289-.645.645v3.08C0 20.932 1.067 22 2.378 22h3.079c.356 0 .645-.289.645-.645 0-.355-.289-.644-.645-.644zM21.355 15.898c-.355 0-.644.289-.644.645v3.08c0 .6-.489 1.088-1.089 1.088h-3.079c-.356 0-.645.289-.645.644 0 .356.289.645.645.645h3.08C20.932 22 22 20.933 22 19.622v-3.079c0-.356-.289-.645-.645-.645z" transform="translate(-73 -832) translate(73 832) translate(13 13)"/>
                    <path d="M19.207 18.563v-6.875c0-.356-.289-.645-.645-.645h-6.875c-.355 0-.644.289-.644.645v6.874c0 .356.289.645.645.645h6.874c.356 0 .645-.289.645-.645zm-1.289-.645h-5.586v-5.586h5.586v5.586zM13.406 9.582h4.813c.356 0 .644-.289.644-.645V4.125c0-.356-.288-.645-.644-.645h-4.813c-.356 0-.644.289-.644.645v4.813c0 .355.288.644.644.644zm.645-4.812h3.523v3.523h-3.523V4.77zM9.625 2.793H3.437c-.355 0-.644.289-.644.644v6.188c0 .356.289.645.644.645h6.188c.356 0 .645-.289.645-.645V3.437c0-.355-.289-.644-.645-.644zM8.98 8.98H4.082V4.082H8.98V8.98zM8.938 17.918H4.082v-5.543c0-.356-.289-.645-.644-.645-.356 0-.645.289-.645.645v6.188c0 .355.289.644.644.644h5.5c.356 0 .645-.289.645-.645 0-.355-.289-.644-.645-.644z" transform="translate(-73 -832) translate(73 832) translate(13 13)"/>
                    <path d="M6.832 15.813v-3.438c0-.356-.289-.645-.644-.645-.356 0-.645.289-.645.645v3.438c0 .355.289.644.644.644.356 0 .645-.289.645-.645zM8.938 11.73c-.356 0-.645.289-.645.645v3.438c0 .355.289.644.645.644.355 0 .644-.289.644-.645v-3.437c0-.356-.289-.645-.645-.645zM14.438 15.77h1.374c.356 0 .645-.289.645-.645 0-.356-.289-.645-.645-.645h-1.374c-.356 0-.645.289-.645.645 0 .356.289.645.645.645zM6.531 7.52c.356 0 .645-.289.645-.645v-.688c0-.355-.289-.644-.645-.644-.356 0-.644.289-.644.644v.688c0 .356.288.645.644.645z" transform="translate(-73 -832) translate(73 832) translate(13 13)"/>
                </g>
            </g>
        </g>
    </g>
</svg>
