<svg width="28" height="28" viewBox="0 0 28 28" fill="none" xmlns="http://www.w3.org/2000/svg">
<path fill-rule="evenodd" clip-rule="evenodd" d="M6.52213 13.213V6.58834H13.0156V12.8851C13.0156 17.1485 10.392 20.4936 6.25977 21.4119V18.3947C8.48986 17.87 9.73608 16.099 9.80167 13.213H6.52213ZM14.9842 13.213V6.58831H21.4121V12.885C21.4121 17.1484 18.8541 20.4936 14.7218 21.4118V18.3947C16.8863 17.8699 18.1326 16.099 18.1982 13.213H14.9842Z" fill="#4042AB"/>
</svg>
