<svg xmlns="http://www.w3.org/2000/svg" xmlns:xlink="http://www.w3.org/1999/xlink" width="78" height="78" viewBox="0 0 78 78">
    <defs>
        <path id="h83hsme5ra" d="M0.27 0.581L27.15 0.581 27.15 35.141 0.27 35.141z"/>
        <path id="rd8vfj5zfc" d="M0.239 0.103L29.039 0.103 29.039 28.903 0.239 28.903z"/>
    </defs>
    <g fill="none" fill-rule="evenodd">
        <g>
            <g transform="translate(-141 -494) translate(141 494)">
                <circle cx="39" cy="39" r="38.5" fill="#FFF" fill-opacity=".1" stroke="#FFF"/>
                <g>
                    <g transform="translate(14 15) translate(0 11.795)">
                        <mask id="xma5xwvrcb" fill="#fff">
                            <use xlink:href="#h83hsme5ra"/>
                        </mask>
                        <path fill="#FFF" stroke="#FFF" stroke-width=".2" d="M24.826 15.746c-1.205-.653-2.73-.276-3.488.867-.251.379-.487.768-.733 1.15-.293.456-.59.91-.885 1.364l-.098-.039v-.692c0-3.808.003-7.616-.003-11.424-.003-1.507-.926-2.688-2.37-2.886-.604-.083-1.243.101-1.913.169-.327-1.376-1.21-2.318-2.771-2.333-1.589-.014-2.48.939-2.851 2.445-.095-.026-.162-.033-.217-.062-1.681-.88-4.095.328-4.037 2.728.012.467.002.935.002 1.425-.33-.068-.606-.154-.887-.176-1.468-.115-2.649 1.04-2.65 2.603-.005 5.038-.014 10.076.017 15.114.004.587.167 1.204.391 1.752.554 1.356 1.163 2.69 1.793 4.012.442.927.77 1.86.633 2.906-.021.158-.003.32-.003.472h1.402c.01-1.164.103-2.276-.456-3.367-.765-1.498-1.413-3.057-2.071-4.607-.172-.405-.267-.874-.273-1.315-.03-2.005-.015-4.01-.016-6.015v-8.543c0-.151-.003-.303.002-.454.026-.682.484-1.16 1.093-1.143.589.016 1.02.484 1.023 1.154.007 2.494.003 4.988.003 7.481v.533h1.418v-.62c.001-3.74.004-7.48 0-11.221 0-.541.159-1 .614-1.313.451-.309.94-.363 1.434-.103.548.287.782.76.782 1.368-.002 3.285-.001 6.57-.001 9.856v.614h1.418v-.528-5.46c0-2.224-.006-4.448.004-6.672.003-.79.535-1.38 1.269-1.457.702-.075 1.372.413 1.522 1.127.04.195.032.403.032.604.002 3.926.002 7.852.002 11.778v.614h1.42v-4.435c0-2.039-.009-4.078.002-6.117.004-.782.549-1.373 1.283-1.448.68-.07 1.334.397 1.496 1.093.05.21.044.435.044.653.001 4.06 0 8.121-.001 12.182 0 .758-.04 1.52.027 2.272.022.26.26.583.492.722.309.184.611-.027.812-.315.125-.18.243-.365.36-.55.854-1.333 1.688-2.68 2.573-3.992.19-.28.535-.521.858-.627.464-.152.9.045 1.198.449.313.421.31.868.078 1.332-.937 1.866-1.862 3.739-2.803 5.603-1.099 2.174-2.007 4.47-3.761 6.244-1.3 1.315-1.365 2.92-1.205 4.622h1.376c0-.417.03-.804-.005-1.185-.087-.951.232-1.725.851-2.447.722-.842 1.498-1.684 2.007-2.653 1.687-3.203 3.278-6.457 4.875-9.707.611-1.242.084-2.756-1.108-3.402" mask="url(#xma5xwvrcb)"/>
                    </g>
                    <g transform="translate(14 15) translate(19.65 .1)">
                        <mask id="wtcrkn2gkd" fill="#fff">
                            <use xlink:href="#rd8vfj5zfc"/>
                        </mask>
                        <path fill="#FFF" stroke="#FFF" stroke-width=".2" d="M14.138 25.63c-5.859.006-10.623-4.749-10.626-10.604C3.508 9.166 8.258 4.406 14.115 4.4c5.86-.005 10.621 4.746 10.626 10.604.004 5.86-4.746 10.62-10.603 10.626m.038-22.648c-6.67-.022-12.077 5.358-12.082 12.02-.005 6.645 5.368 12.034 12.008 12.046 6.647.011 12.04-5.355 12.057-11.996.016-6.649-5.344-12.047-11.983-12.07" mask="url(#wtcrkn2gkd)"/>
                    </g>
                    <path fill="#FFF" stroke="#FFF" stroke-width=".2" d="M39.658 20.214c-2.8 3.214-7.19 3.228-9.577 1.675l10.443-10.447c1.248 1.595 1.788 5.726-.866 8.772m1.805-10.134c-.48-.725-.883-.773-1.491-.166-3.798 3.795-7.595 7.592-11.39 11.39-.615.614-.583 1.03.15 1.49 3.072 1.921 6.267 2.105 9.441.381 3.143-1.706 4.672-4.486 4.817-7.778-.027-2.097-.516-3.786-1.527-5.317M26.921 18.719c-1.646-2.545-1.086-6.607 1.26-9.017 2.717-2.794 6.77-2.914 9.212-1.436L26.92 18.719m11.965-11.24c-1.535-1.038-3.235-1.545-5.29-1.58-.249.025-.702.054-1.151.115-6.639.897-10.091 8.654-6.32 14.194.447.657.859.702 1.43.131 3.823-3.818 7.643-7.639 11.461-11.462.546-.547.501-.971-.13-1.397" transform="translate(14 15)"/>
                </g>
            </g>
        </g>
    </g>
</svg>
