<svg width="26" height="26" viewBox="0 0 26 26" fill="none" xmlns="http://www.w3.org/2000/svg">
<path fill-rule="evenodd" clip-rule="evenodd" d="M14.9237 15.9033C15.4631 15.3855 16.195 15.0667 17 15.0667C18.6542 15.0667 20 16.4125 20 18.0667C20 19.7209 18.6542 21.0667 17 21.0667C15.3458 21.0667 14 19.7209 14 18.0667C14 17.5783 14.1174 17.1168 14.3253 16.7089L11.1919 14.7677C10.5494 15.5405 9.5812 16.0333 8.5 16.0333C6.5701 16.0333 5 14.4632 5 12.5333C5 10.6034 6.5701 9.03333 8.5 9.03333C9.5812 9.03333 10.5494 9.5262 11.1919 10.299L14.3253 8.35773C14.1174 7.94983 14 7.48837 14 7C14 5.3458 15.3458 4 17 4C18.6542 4 20 5.3458 20 7C20 8.6542 18.6542 10 17 10C16.195 10 15.4631 9.6812 14.9237 9.16337L11.7152 11.1511C11.8983 11.5754 12 12.0427 12 12.5333C12 13.024 11.8983 13.4913 11.7153 13.9156L14.9237 15.9033ZM19 7C19 5.8972 18.1028 5 17 5C15.8972 5 15 5.8972 15 7C15 8.1028 15.8972 9 17 9C18.1028 9 19 8.1028 19 7ZM8.5 15.0333C7.1215 15.0333 6 13.9118 6 12.5333C6 11.1548 7.1215 10.0333 8.5 10.0333C9.8785 10.0333 11 11.1548 11 12.5333C11 13.9118 9.8785 15.0333 8.5 15.0333ZM15 18.0667C15 19.1695 15.8972 20.0667 17 20.0667C18.1028 20.0667 19 19.1695 19 18.0667C19 16.9639 18.1028 16.0667 17 16.0667C15.8972 16.0667 15 16.9639 15 18.0667Z" fill="#828282"/>
</svg>
