<svg xmlns="http://www.w3.org/2000/svg" width="40" height="40" viewBox="0 0 40 40">
    <g fill="none" fill-rule="evenodd">
        <g>
            <g>
                <path d="M0 0H40V40H0z" transform="translate(-160 -297) translate(160 297)"/>
                <g fill="#4042AB" fill-rule="nonzero" stroke="#FFF" stroke-width=".6">
                    <path d="M24.757 10.78H1.077C.481 10.78 0 11.264 0 11.858c0 .595.482 1.077 1.076 1.077h23.681c.595 0 1.077-.482 1.077-1.077 0-.594-.482-1.076-1.077-1.076zM12.917 8.628c2.378 0 4.305-1.927 4.305-4.306 0-2.378-1.927-4.305-4.305-4.305-2.378 0-4.306 1.927-4.306 4.305 0 2.378 1.928 4.306 4.306 4.306zm0-6.458c1.189 0 2.153.963 2.153 2.152 0 1.19-.964 2.153-2.153 2.153-1.19 0-2.153-.963-2.153-2.153 0-1.189.964-2.152 2.153-2.152zM12.917 15.086c-2.378 0-4.306 1.928-4.306 4.306s1.928 4.306 4.306 4.306 4.305-1.928 4.305-4.306-1.927-4.306-4.305-4.306zm0 6.459c-1.19 0-2.153-.964-2.153-2.153 0-1.19.964-2.153 2.153-2.153s2.153.964 2.153 2.153c0 1.19-.964 2.153-2.153 2.153z" transform="translate(-160 -297) translate(160 297) translate(7 8)"/>
                </g>
            </g>
        </g>
    </g>
</svg>
