<svg width="48" height="48" viewBox="0 0 48 48" fill="none" xmlns="http://www.w3.org/2000/svg">
<circle cx="24" cy="24" r="24" fill="#E9E9F4"/>
<path d="M29.1352 29.5779C28.7236 29.5779 28.3183 29.6435 27.9327 29.7708C27.5869 28.9633 27.0439 28.2429 26.3529 27.6875C25.4031 26.9243 24.2079 26.5039 22.9872 26.5039C21.7666 26.5039 20.5714 26.9243 19.6216 27.6875C18.9306 28.2429 18.3876 28.9633 18.0418 29.7708C17.6562 29.6435 17.2509 29.5779 16.8393 29.5779C14.7223 29.5779 13 31.3002 13 33.4172V34.9542C13 35.3768 13.3427 35.7195 13.7653 35.7195H32.2092C32.6318 35.7195 32.9745 35.3768 32.9745 34.9542V33.4172C32.9745 31.3002 31.2522 29.5779 29.1352 29.5779Z" fill="white"/>
<path fill-rule="evenodd" clip-rule="evenodd" d="M29.5705 30.3181C29.9206 30.2025 30.2887 30.143 30.6624 30.143C32.5846 30.143 34.1484 31.7068 34.1484 33.6289V35.0245C34.1484 35.4083 33.8373 35.7194 33.4535 35.7194H16.7066C16.3228 35.7194 16.0117 35.4083 16.0117 35.0245V33.6289C16.0117 31.7067 17.5756 30.1429 19.4978 30.1429C19.8715 30.1429 20.2395 30.2024 20.5896 30.318C20.9036 29.5849 21.3967 28.9307 22.0241 28.4264C22.7049 27.8793 23.5248 27.5273 24.3852 27.4028V20.2047C23.2379 20.1459 20.9957 19.8266 19.4732 18.3041C17.395 16.2259 17.5585 12.8062 17.5664 12.6616C17.5859 12.3079 17.8683 12.0255 18.222 12.006C18.3665 11.998 21.7863 11.8346 23.8645 13.9128C24.7599 14.8082 25.239 15.9525 25.4938 16.9767C25.6389 16.7711 25.8026 16.5733 25.9877 16.3881C27.7276 14.6483 30.5802 14.7845 30.7007 14.7912C31.0543 14.8107 31.3367 15.0931 31.3562 15.4468C31.3629 15.5674 31.4991 18.4199 29.7593 20.1598C28.5355 21.3837 26.7618 21.6789 25.775 21.7443V27.4029C26.6353 27.5273 27.4552 27.8794 28.1361 28.4265C28.7635 28.9308 29.2566 29.585 29.5705 30.3181ZM17.4015 34.3297H32.7587V33.629C32.7587 32.4731 31.8183 31.5327 30.6624 31.5327C30.2608 31.5327 29.8701 31.6472 29.5327 31.8638C29.3427 31.9857 29.1053 32.0077 28.8961 31.9228C28.6869 31.8379 28.5319 31.6566 28.4807 31.4367C28.1106 29.8499 26.7123 28.7416 25.0801 28.7416C23.4479 28.7416 22.0496 29.8499 21.6795 31.4367C21.6283 31.6566 21.4733 31.8379 21.2641 31.9228C21.0549 32.0077 20.8175 31.9857 20.6275 31.8638C20.2901 31.6472 19.8995 31.5327 19.4978 31.5327C18.3419 31.5327 17.4015 32.4731 17.4015 33.629V34.3297ZM22.8818 14.8956C24.0364 16.0501 24.3099 17.8466 24.3705 18.8118C23.4067 18.753 21.616 18.4816 20.4559 17.3215C19.3014 16.167 19.0278 14.3705 18.9672 13.4053C19.931 13.464 21.7217 13.7355 22.8818 14.8956ZM29.9452 16.2003C29.1496 16.2666 27.8309 16.5104 26.9704 17.3709C26.1156 18.2258 25.8701 19.5502 25.8018 20.3478C26.5974 20.2814 27.916 20.0377 28.7766 19.1771C29.6314 18.3223 29.8769 16.9979 29.9452 16.2003Z" fill="#1D1F75"/>
</svg>
