<svg width="54" height="54" viewBox="0 0 54 54" fill="none" xmlns="http://www.w3.org/2000/svg">
<circle cx="29.4565" cy="30.6134" r="12.7025" fill="#DAA060"/>
<path fill-rule="evenodd" clip-rule="evenodd" d="M27.5447 16.5375C28.1171 16.2697 28.6936 16 29.3257 16C30.2254 16 31.1052 16.0851 31.9574 16.2477C32.3186 16.3166 32.7146 16.5974 33.1011 16.8715C33.4162 17.0949 33.7249 17.3139 34.0032 17.4097C34.7521 17.6675 35.4721 17.9872 36.1573 18.3628C36.4932 18.5469 36.8496 18.5647 37.1989 18.5823C37.603 18.6025 37.9977 18.6223 38.3404 18.8983C38.8299 19.2924 39.2923 19.7189 39.7242 20.1745C39.9279 20.3894 40.086 20.8525 40.24 21.3034C40.3723 21.6909 40.5015 22.0693 40.6539 22.2737C40.8066 22.4782 41.0882 22.6665 41.3737 22.8573C41.7032 23.0777 42.038 23.3015 42.1858 23.5579C42.5586 24.205 42.8306 25.0935 43.0751 25.8924C43.1439 26.1174 43.2106 26.3352 43.2768 26.5386C43.3821 26.8624 43.3226 27.1214 43.2611 27.3896C43.207 27.6254 43.1512 27.8682 43.2043 28.1684C43.3446 28.9623 43.4177 29.7794 43.4177 30.6135C43.4177 30.8463 43.5566 31.1414 43.696 31.4377C43.8479 31.7603 44.0004 32.0843 43.9751 32.3311C43.9231 32.8389 43.8438 33.3387 43.7388 33.829C43.6645 34.1759 43.3974 34.4388 43.1302 34.7018C42.8971 34.9313 42.664 35.1608 42.5587 35.4461C42.3128 36.1122 42.0178 36.7544 41.6777 37.3683C41.5502 37.5985 41.5264 37.91 41.5024 38.222C41.4757 38.5703 41.449 38.9192 41.278 39.1561C40.8253 39.7835 40.3218 40.3718 39.7734 40.915C39.5422 41.1439 39.162 41.2552 38.7843 41.3659C38.4565 41.4619 38.1305 41.5573 37.9055 41.7287C37.3191 42.1751 36.6964 42.5761 36.0424 42.9266C35.8006 43.0562 35.5861 43.2837 35.3702 43.5127C35.1155 43.7828 34.8588 44.055 34.5531 44.1709C34.3784 44.2371 34.1996 44.3089 34.018 44.3819C33.4559 44.6077 32.8669 44.8444 32.2878 44.9588C31.7903 45.0571 31.2481 44.9214 30.7026 44.7848C30.2831 44.6798 29.8616 44.5744 29.4568 44.5744C29.1751 44.5744 28.8619 44.6807 28.5485 44.787C28.1869 44.9098 27.825 45.0326 27.5109 44.9924C27.2561 44.9597 27.023 44.9457 26.7977 44.9321C26.3965 44.908 26.0201 44.8853 25.5903 44.7618C25.1648 44.6396 24.749 44.27 24.3423 43.9087C24.0215 43.6235 23.7064 43.3435 23.3968 43.1941C23.1454 43.0728 22.8849 43.0739 22.6281 43.075C22.3419 43.0762 22.0604 43.0774 21.8013 42.9091C21.2604 42.5575 20.7453 42.1697 20.2595 41.7488C20.0224 41.5432 19.8102 41.1542 19.6037 40.7754C19.4349 40.4659 19.2699 40.1632 19.098 39.973C18.7731 39.6137 18.4667 39.2374 18.1802 38.8456C17.9278 38.5005 17.6909 38.1434 17.4704 37.7752C17.3232 37.5293 17.0338 37.3307 16.7425 37.1308C16.4116 36.9037 16.0783 36.675 15.9483 36.3734C15.744 35.8996 15.5652 35.4122 15.4137 34.9129C15.2629 34.4161 15.1391 33.9076 15.0438 33.3891C14.9597 32.9309 15.1094 32.3911 15.2587 31.8531C15.3775 31.4248 15.496 30.9976 15.496 30.6135C15.496 30.1796 15.5158 29.7502 15.5545 29.3264C15.6007 28.8217 15.6737 28.3248 15.7721 27.8371C15.9039 27.1842 16.0812 26.5478 16.3006 25.9314C16.4331 25.5589 16.5044 25.109 16.5767 24.6522C16.6801 23.9999 16.7856 23.3335 17.0752 22.8584C17.47 22.2106 17.9161 21.5975 18.4079 21.0247C18.7233 20.6575 19.1985 20.4627 19.6745 20.2676C20.0502 20.1136 20.4264 19.9595 20.7246 19.7201C20.9601 19.5311 21.1404 19.2378 21.3216 18.9431C21.5353 18.5955 21.7502 18.246 22.058 18.0635C22.6565 17.7089 23.2837 17.3977 23.9353 17.1342C24.311 16.9822 24.7837 17.008 25.2544 17.0337C25.6365 17.0546 26.0172 17.0754 26.3439 17.001C26.7536 16.9077 27.1481 16.7231 27.5447 16.5375ZM17.7417 30.6134C17.7417 37.0836 22.9868 42.3287 29.4569 42.3287C35.9271 42.3287 41.1722 37.0835 41.1722 30.6134C41.1722 24.1432 35.9271 18.8981 29.4569 18.8981C22.9868 18.8981 17.7417 24.1433 17.7417 30.6134Z" fill="#6A3A2D"/>
<circle cx="29.4564" cy="30.6134" r="7.65559" fill="#F2C89B"/>
<circle cx="29.4561" cy="30.6134" r="1.1846" fill="#C3874A"/>
<path d="M25.2219 13.011C25.1016 12.829 24.869 12.7579 24.6675 12.8415C24.5546 12.8884 21.8942 14.0153 21.2013 16.2819C21.051 16.7734 21.0075 17.2722 21.032 17.753C20.0892 16.6957 19.0253 15.9682 17.9154 15.6289C16.5474 15.2106 14.9077 15.3203 13.1737 15.9459C11.8834 16.4114 10.9956 16.9937 10.9584 17.0183C10.7764 17.1386 10.7053 17.3711 10.789 17.5726C10.806 17.6138 11.2165 18.5929 12.0258 19.7004C13.1135 21.1887 14.4116 22.1966 15.7796 22.6148C17.1476 23.033 18.7873 22.9234 20.5213 22.2977C21.1599 22.0673 21.6998 21.8084 22.0869 21.6026C22.4376 21.416 22.6625 21.2734 22.7217 21.235C22.7772 21.2114 22.9452 21.1374 23.1805 21.0123C24.0035 20.5747 25.6484 19.5129 26.1716 17.8015C26.8646 15.535 25.2893 13.113 25.2219 13.011Z" fill="#C6ED69"/>
<path d="M23.9452 16.5399C23.7048 16.4664 23.4503 16.6017 23.3767 16.8422L22.3437 20.2213L17.1063 18.62C16.8659 18.5465 16.6113 18.6819 16.5378 18.9223C16.4642 19.1627 16.5996 19.4173 16.8401 19.4908L22.4781 21.2145C22.5984 21.2513 22.7221 21.2359 22.825 21.1812C22.8325 21.1772 22.8397 21.1725 22.847 21.168C22.8548 21.1645 22.8628 21.1611 22.8703 21.1571C22.9732 21.1024 23.0552 21.0084 23.0919 20.8882L24.2475 17.1085C24.321 16.8679 24.1857 16.6134 23.9452 16.5399Z" fill="#84D44A"/>
<path d="M24.667 12.8415C24.5541 12.8884 21.8938 14.0154 21.2008 16.282C21.0505 16.7735 21.0071 17.2722 21.0316 17.7531C21.0191 17.7391 21.0066 17.7255 20.9941 17.7116L22.8395 21.1822C22.9224 21.1438 23.0389 21.0873 23.18 21.0123C24.003 20.5747 25.6479 19.513 26.1711 17.8015C26.8641 15.535 25.2888 13.113 25.2214 13.011C25.1011 12.829 24.8685 12.7579 24.667 12.8415Z" fill="#82D843"/>
<path d="M23.3754 16.8421L22.3423 20.2212L22.3255 20.2161L22.835 21.1743C22.8385 21.1722 22.8421 21.1701 22.8457 21.1679C22.8534 21.1644 22.8614 21.161 22.8689 21.157C22.9718 21.1023 23.0538 21.0083 23.0905 20.8881L24.2461 17.1084C24.3196 16.8679 24.1843 16.6134 23.9438 16.5398C23.7034 16.4663 23.4488 16.6017 23.3754 16.8421Z" fill="#5DC378"/>
</svg>
