<svg width="54" height="54" viewBox="0 0 54 54" fill="none" xmlns="http://www.w3.org/2000/svg">
<circle cx="26.4871" cy="27.5135" r="16.4324" fill="#DAA060"/>
<circle cx="26.9999" cy="26.9999" r="12.8378" fill="#F2C89B"/>
<path fill-rule="evenodd" clip-rule="evenodd" d="M24.4359 8.70433C25.187 8.35343 25.9435 8 26.773 8C27.9535 8 29.108 8.11147 30.2264 8.32458C30.7003 8.41483 31.22 8.78283 31.7271 9.14195C32.1406 9.43472 32.5457 9.72159 32.9109 9.84722C33.8936 10.185 34.8385 10.604 35.7376 11.096C36.1784 11.3373 36.646 11.3607 37.1045 11.3836C37.6347 11.4102 38.1526 11.4361 38.6024 11.7977C39.2447 12.3142 39.8514 12.873 40.4182 13.47C40.6855 13.7516 40.893 14.3584 41.095 14.9493C41.2686 15.4569 41.4382 15.9529 41.6382 16.2206C41.8385 16.4887 42.208 16.7353 42.5827 16.9854C43.0152 17.2741 43.4545 17.5674 43.6484 17.9034C44.1376 18.7513 44.4945 19.9156 44.8153 20.9624C44.9057 21.2572 44.9932 21.5427 45.08 21.8091C45.2182 22.2334 45.1402 22.5728 45.0594 22.9242C44.9884 23.2331 44.9153 23.5514 44.9849 23.9447C45.1689 24.985 45.2649 26.0556 45.2649 27.1487C45.2649 27.4537 45.4471 27.8403 45.6301 28.2285C45.8294 28.6513 46.0295 29.0759 45.9964 29.3992C45.9281 30.0647 45.8241 30.7195 45.6863 31.362C45.5888 31.8165 45.2383 32.1611 44.8876 32.5057C44.5818 32.8063 44.2758 33.1071 44.1376 33.481C43.8151 34.3538 43.4279 35.1953 42.9817 35.9997C42.8144 36.3013 42.783 36.7095 42.7516 37.1183C42.7166 37.5747 42.6815 38.0318 42.4572 38.3423C41.8631 39.1644 41.2023 39.9353 40.4827 40.647C40.1794 40.947 39.6805 41.0929 39.1848 41.2379C38.7547 41.3637 38.3269 41.4887 38.0316 41.7132C37.2621 42.2982 36.445 42.8237 35.5868 43.283C35.2695 43.4528 34.988 43.7509 34.7047 44.0509C34.3705 44.4049 34.0337 44.7615 33.6326 44.9134C33.4033 45.0001 33.1687 45.0943 32.9304 45.1899C32.1928 45.4858 31.4198 45.7959 30.6599 45.9458C30.0071 46.0746 29.2956 45.8968 28.5797 45.7179C28.0293 45.5803 27.4762 45.4421 26.945 45.4421C26.5754 45.4421 26.1643 45.5814 25.7531 45.7208C25.2786 45.8816 24.8037 46.0425 24.3915 45.9898C24.0572 45.947 23.7512 45.9286 23.4556 45.9109C22.9292 45.8792 22.4353 45.8495 21.8712 45.6877C21.3129 45.5275 20.7672 45.0433 20.2337 44.5698C19.8126 44.1962 19.3991 43.8292 18.9929 43.6335C18.663 43.4745 18.3212 43.476 17.9842 43.4774C17.6086 43.479 17.2392 43.4805 16.8992 43.26C16.1894 42.7994 15.5135 42.2911 14.876 41.7396C14.5649 41.4703 14.2865 40.9605 14.0154 40.4641C13.794 40.0585 13.5774 39.6619 13.3518 39.4128C12.9255 38.9419 12.5235 38.4489 12.1475 37.9355C11.8163 37.4833 11.5054 37.0153 11.2161 36.5329C11.0229 36.2106 10.6431 35.9504 10.2609 35.6885C9.82668 35.3909 9.38931 35.0912 9.21871 34.696C8.95069 34.0752 8.7161 33.4365 8.51727 32.7824C8.31937 32.1313 8.15685 31.465 8.03187 30.7855C7.92147 30.1852 8.11797 29.4779 8.31383 28.7729C8.46974 28.2117 8.62525 27.6519 8.62525 27.1487C8.62525 26.58 8.65124 26.0175 8.70206 25.4621C8.76264 24.8008 8.85837 24.1497 8.98754 23.5106C9.16045 22.6551 9.3931 21.8212 9.68099 21.0135C9.85495 20.5254 9.94846 19.9359 10.0434 19.3373C10.179 18.4825 10.3175 17.6093 10.6975 16.9869C11.2156 16.138 11.801 15.3346 12.4464 14.5841C12.8601 14.1029 13.4838 13.8476 14.1083 13.592C14.6014 13.3902 15.095 13.1882 15.4863 12.8746C15.7953 12.6269 16.032 12.2426 16.2697 11.8564C16.5502 11.4009 16.8321 10.943 17.2361 10.7039C18.0214 10.2392 18.8445 9.83141 19.6995 9.48616C20.1925 9.28707 20.8128 9.32087 21.4305 9.35453C21.9319 9.38185 22.4315 9.40908 22.8601 9.31163C23.3977 9.18934 23.9155 8.94745 24.4359 8.70433ZM11.5721 27.1485C11.5721 35.6266 18.4549 42.4995 26.9452 42.4995C35.4355 42.4995 42.3183 35.6265 42.3183 27.1484C42.3183 18.6703 35.4355 11.7975 26.9452 11.7975C18.4549 11.7975 11.5721 18.6704 11.5721 27.1485Z" fill="#6A3A2D"/>
<circle cx="27.0006" cy="27" r="10.7838" fill="#C3874A"/>
<circle cx="26.9996" cy="26.9999" r="7.7027" fill="#F2C89B"/>
<circle cx="27.0005" cy="27" r="4.62162" fill="#DAA060"/>
<circle cx="26.9995" cy="27" r="1.54054" fill="#C3874A"/>
</svg>
