<svg width="54" height="54" viewBox="0 0 54 54" fill="none" xmlns="http://www.w3.org/2000/svg">
<path d="M21 44.9827L22.4857 25L30.6193 25.0171L32 45L21 44.9827Z" fill="#C3874A"/>
<path d="M35.298 46C35.2978 46 35.2975 46 35.2973 46L16.7013 45.9866C16.3136 45.9864 15.9996 45.7653 16 45.4928C16.0004 45.2206 16.3146 45 16.702 45H16.7027L35.2987 45.0134C35.6864 45.0136 36.0004 45.2347 36 45.5072C35.9995 45.7795 35.6854 46 35.298 46Z" fill="#6A3A2D"/>
<path d="M36.8293 15.15C37.061 14.5058 37.1879 13.8108 37.1886 13.0858C37.192 9.73292 34.5003 7.01214 31.1766 7.00863C29.5614 7.00692 28.0943 7.64739 27.0123 8.69092C25.9324 7.64514 24.4667 7.00171 22.8515 7C19.5277 6.99659 16.8305 9.71188 16.8271 13.0648C16.8264 13.7897 16.9519 14.4849 17.1823 15.1297C14.7587 15.9121 13.0028 18.2015 13 20.9064C12.9966 24.2593 15.6883 26.98 19.012 26.9835C20.593 26.9852 22.0319 26.3714 23.1068 25.3669C24.1798 26.3736 25.6173 26.9904 27.1983 26.992C28.681 26.9935 30.0386 26.4537 31.0884 25.5581C32.1365 26.4559 33.493 26.9985 34.9756 27C38.2994 27.0034 40.9966 24.2881 41 20.9352C41.0027 18.2305 39.2512 15.9374 36.8293 15.15Z" fill="#ADE194"/>
</svg>
